{"data":{"authors":{"edges":[{"node":{"uid":"fauzana","name":"Fauzana S","image":"/images/fauzana_150x150.jpeg","url":"https://fauzana.com/","bio":"Berkepala batu. Bertangan besi. Berhati rapuh."}}]}},"pageContext":{"isCreatedByStatefulCreatePages":false,"nodes":[{"node":{"frontmatter":{"title":"Things I Regret before Turning into 23","tags":["life","regret"],"cover":"/images/post-covers/regret.jpg","date":"2015-06-02","category":"Lyfe","author":null},"fields":{"slug":"/regret-before-23"},"excerpt":"It was the time to make a reflection, defining life-meaning. What kind of life I've been through in this 22 years. Life is short, huh…","timeToRead":3}},{"node":{"frontmatter":{"title":"A Year Working at Not So First Company","tags":["life","work"],"cover":"/images/post-covers/workspace.jpeg","date":"2015-05-28","category":"Lyfe","author":null},"fields":{"slug":"/a-year-working-at-not-so-first-company"},"excerpt":"Finally, Graduation! 🎓🎉 Today, my farewell from the first company that I served in Jakarta. Not the first one who accepted me though…","timeToRead":3}},{"node":{"frontmatter":{"title":"My Life My Rules","tags":["life","rules"],"cover":"/images/post-covers/ruler.jpeg","date":"2015-01-02","category":"Lyfe","author":"fauzana"},"fields":{"slug":"/my-life-my-rules"},"excerpt":"The Pursuit of Happiness There was an old wise cat and a small kitten in an alleyway. The old cat saw the kitten chasing its tail and asked…","timeToRead":2}}],"page":2,"pages":2,"total":10,"limit":7,"prev":"/"}}