{"componentChunkName":"component---src-templates-index-jsx","path":"/2","result":{"data":{"authors":{"edges":[{"node":{"uid":"fauzana","name":"Fauzana S","image":"/images/fauzana_150x150.jpeg","url":"https://fauzana.com/","bio":"Berkepala batu. Bertangan besi. Berhati rapuh."}}]}},"pageContext":{"nodes":[{"node":{"frontmatter":{"title":"Words in Friends Word","tags":["life","friends","words"],"cover":"/images/post-covers/friends.jpeg","date":"2015-06-28","category":"Lyfe","author":null},"fields":{"slug":"/words-in-friends-word"},"excerpt":"Some questions to begin the story: Why should parents take care of their children when they will move out, get married, and slowly (or…","timeToRead":3}},{"node":{"frontmatter":{"title":"Treacherous","tags":["life","treacherous"],"cover":"/images/post-covers/candle-flame-water.jpg","date":"2015-06-12","category":"Lyfe","author":null},"fields":{"slug":"/treacherous"},"excerpt":"To whom it may concern, Pretending to be good people in front of her \nBeing gentle to her \nAnd no matter how many times she says \" Sorry…","timeToRead":1}},{"node":{"frontmatter":{"title":"Things I Regret before Turning into 23","tags":["life","regret"],"cover":"/images/post-covers/regret.jpg","date":"2015-06-02","category":"Lyfe","author":null},"fields":{"slug":"/regret-before-23"},"excerpt":"It was the time to make a reflection, defining life-meaning. What kind of life I've been through in this 22 years. Life is short, huh…","timeToRead":3}},{"node":{"frontmatter":{"title":"A Year Working at Not So First Company","tags":["life","work"],"cover":"/images/post-covers/workspace.jpeg","date":"2015-05-28","category":"Lyfe","author":null},"fields":{"slug":"/a-year-working-at-not-so-first-company"},"excerpt":"Finally, Graduation! 🎓🎉 Today, my farewell from the first company that I served in Jakarta. Not the first one who accepted me though…","timeToRead":3}},{"node":{"frontmatter":{"title":"My Life My Rules","tags":["life","rules"],"cover":"/images/post-covers/ruler.jpeg","date":"2015-01-02","category":"Lyfe","author":"fauzana"},"fields":{"slug":"/my-life-my-rules"},"excerpt":"The Pursuit of Happiness There was an old wise cat and a small kitten in an alleyway. The old cat saw the kitten chasing its tail and asked…","timeToRead":2}}],"page":2,"pages":2,"total":12,"limit":7,"prev":"/"}}}