{"componentChunkName":"component---src-templates-index-jsx","path":"/","result":{"data":{"authors":{"edges":[{"node":{"uid":"fauzana","name":"Fauzana S","image":"/images/fauzana_150x150.jpeg","url":"https://fauzana.com/","bio":"Berkepala batu. Bertangan besi. Berhati rapuh."}}]}},"pageContext":{"nodes":[{"node":{"frontmatter":{"title":"Yellow?","tags":["life","yellow"],"cover":"/images/post-covers/sunflower.jpg","date":"2020-06-02","category":"Lyfe","author":null},"fields":{"slug":"/yellow"},"excerpt":"☎️ This is Nana speaking. Hang on there a sec. Well, I deleted entire words I prepared for this morning. I think it wasn't appropiate to be…","timeToRead":1}},{"node":{"frontmatter":{"title":"Learn the Lesson","tags":["life","regret"],"cover":"/images/post-covers/regret.jpg","date":"2019-06-01","category":"Lyfe","author":null},"fields":{"slug":"/learn-the-lesson"},"excerpt":"In honor of  titah  netizen; who (87%) chose \"Now & Future\"-tale, here is the chronicle, Majesty. 👑 Me vs JavaScript I still put my bet on…","timeToRead":3}},{"node":{"frontmatter":{"title":"Working at Yet Another Indonesian E-Commerce Company and Quarter Life Crisis","tags":["life","work"],"cover":"/images/post-covers/art-artistic-bazaar.jpg","date":"2018-06-02","category":"Lyfe","author":null},"fields":{"slug":"/quarter-life-crisis"},"excerpt":"Uwuwuwuuu~ It's about 6 months I've been worked for one of largest Indonesian digital market-place! Those months were so meaningful…","timeToRead":4}},{"node":{"frontmatter":{"title":"Answer to the Ultimate Question of Life, the Universe, and Everything in Reverse","tags":["life","resolution"],"cover":"/images/post-covers/night-stars.jpg","date":"2016-06-01","category":"Lyfe","author":null},"fields":{"slug":"/yet-another-24-birthday"},"excerpt":"It's time to re-evaluate my evolution in a year, every part of my life. In a few hours, I will be  . Today is my first work anniversary at…","timeToRead":3}},{"node":{"frontmatter":{"title":"The Interdependence of My Humanity Side","tags":["life","resolution"],"cover":"/images/post-covers/beautiful-tree.jpg","date":"2016-01-02","category":"Lyfe","author":null},"fields":{"slug":"/the-interdependence-of-my-humanity-side"},"excerpt":"This is yet another mainstream post in welcoming 2016. If you don't like annual-celebration-post, please scroll this page down or move to…","timeToRead":2}},{"node":{"frontmatter":{"title":"Menyerah dan Bahagia","tags":["life","resign","bahagia"],"cover":"/images/post-covers/mario-luigi.jpeg","date":"2015-09-11","category":"Lyfe","author":null},"fields":{"slug":"/menyerah-dan-bahagia"},"excerpt":"Menyerah? Ah ya, kali ini saya memberikan arti  resign  dengan kata menyerah. Menyerah a.k.a Resign Hari ini  graduation day -nya kaka…","timeToRead":2}},{"node":{"frontmatter":{"title":"Lie","tags":["life","lie"],"cover":"/images/post-covers/catsu.jpeg","date":"2015-09-10","category":"Lyfe","author":null},"fields":{"slug":"/lie"},"excerpt":"Lie(s) People lie \nEverybody lie \nParent lie \nOthers lie \nEven myself lie I hate people \nI hate everybody \nI hate you \nI even hate myself…","timeToRead":1}}],"page":1,"pages":2,"total":12,"limit":7,"next":"/2"}}}