{"data":{"authors":{"edges":[{"node":{"uid":"fauzana","name":"Fauzana S","image":"/images/fauzana_150x150.jpeg","url":"https://fauzana.com/","bio":"Berkepala batu. Bertangan besi. Berhati rapuh."}}]}},"pageContext":{"isCreatedByStatefulCreatePages":false,"nodes":[{"node":{"frontmatter":{"title":"Working at Yet Another Indonesian E-Commerce Company and Quarter Life Crisis","tags":["life","work"],"cover":"/images/post-covers/art-artistic-bazaar.jpg","date":"2018-06-02","category":"Lyfe","author":null},"fields":{"slug":"/quarter-life-crisis"},"excerpt":"Uwuwuwuuu~ It's about 6 months I've been worked for one of largest Indonesian digital market-place! Those months were so meaningful…","timeToRead":4}},{"node":{"frontmatter":{"title":"Answer to the Ultimate Question of Life, the Universe, and Everything in Reverse","tags":["life","resolution"],"cover":"/images/post-covers/night-stars.jpg","date":"2016-06-01","category":"Lyfe","author":null},"fields":{"slug":"/yet-another-24-birthday"},"excerpt":"It's time to re-evaluate my evolution in a year, every part of my life. In a few hours, I will be  . Today is my first work anniversary at…","timeToRead":3}},{"node":{"frontmatter":{"title":"The Interdependence of My Humanity Side","tags":["life","resolution"],"cover":"/images/post-covers/beautiful-tree.jpg","date":"2016-01-02","category":"Lyfe","author":null},"fields":{"slug":"/the-interdependence-of-my-humanity-side"},"excerpt":"This is yet another mainstream post in welcoming 2016. If you don't like annual-celebration-post, please scroll this page down or move to…","timeToRead":2}},{"node":{"frontmatter":{"title":"Menyerah dan Bahagia","tags":["life","resign","bahagia"],"cover":"/images/post-covers/mario-luigi.jpeg","date":"2015-09-11","category":"Lyfe","author":null},"fields":{"slug":"/menyerah-dan-bahagia"},"excerpt":"Menyerah? Ah ya, kali ini saya memberikan arti  resign  dengan kata menyerah. Menyerah a.k.a Resign Hari ini  graduation day -nya kaka…","timeToRead":2}},{"node":{"frontmatter":{"title":"Lie","tags":["life","lie"],"cover":"/images/post-covers/catsu.jpeg","date":"2015-09-10","category":"Lyfe","author":null},"fields":{"slug":"/lie"},"excerpt":"Lie(s) People lie \nEverybody lie \nParent lie \nOthers lie \nEven myself lie I hate people \nI hate everybody \nI hate you \nI even hate myself…","timeToRead":1}},{"node":{"frontmatter":{"title":"Words in Friends Word","tags":["life","friends","words"],"cover":"/images/post-covers/friends.jpeg","date":"2015-06-28","category":"Lyfe","author":null},"fields":{"slug":"/words-in-friends-word"},"excerpt":"Some questions to begin the story: Why should parents take care of their children when they will move out, get married, and slowly (or…","timeToRead":3}},{"node":{"frontmatter":{"title":"Treacherous","tags":["life","treacherous"],"cover":"/images/post-covers/candle-flame-water.jpg","date":"2015-06-12","category":"Lyfe","author":null},"fields":{"slug":"/treacherous"},"excerpt":"To whom it may concern, Pretending to be good people in front of her \nBeing gentle to her \nAnd no matter how many times she says \" Sorry…","timeToRead":1}}],"page":1,"pages":2,"total":10,"limit":7,"next":"/2"}}